input_data/C1_files/JHAMAL00016-004_2026-04-23_21-52-09_shot20_ch1.csv

Revision:           0
Type:               interpolation
Start:              0
Points:             768000
Count:              1
XDispRange:         6.00000E-06
XDispOrg:           -9.28560000000E-07
XInc:               7.812500E-12
XOrg:               -9.28558271344E-07
XUnits:             Second
YDispRange:         8.00000E-01
YDispOrg:           0.0E+00
YInc:               1.3054897848398E-05
YOrg:               4.17756731148744E-04
YUnits:             Volt
YReference:         1
Frame:              UXR0104A:MY62410106
Date:               23 APR 2026
Time:               13:48:49.120
Max Bandwidth:      21000000000
Min Bandwidth:      0
Data: 
-9.28558271E-07,-6.177578E-02
-9.28550459E-07,-5.909952E-02
-9.28542646E-07,-5.741544E-02
-9.28534834E-07,-5.704990E-02
-9.28527021E-07,-5.716740E-02
-9.28519209E-07,-5.637105E-02
-9.28511396E-07,-5.366869E-02
-9.28503584E-07,-4.919086E-02
-9.28495771E-07,-4.376002E-02
-9.28487959E-07,-3.812030E-02
-9.28480146E-07,-3.255892E-02
-9.28472334E-07,-2.691920E-02
-9.28464521E-07,-2.095311E-02
-9.28456709E-07,-1.472592E-02
-9.28448896E-07,-8.69456E-03
-9.28441084E-07,-3.34205E-03
-9.28433271E-07,1.47520E-03
-9.28425459E-07,6.33163E-03
-9.28417646E-07,1.173635E-02
-9.28409834E-07,1.776772E-02
-9.28402021E-07,2.409934E-02
-9.28394209E-07,3.018292E-02
-9.28386396E-07,3.547016E-02
-9.28378584E-07,3.989577E-02
-9.28370771E-07,4.372085E-02
-9.28362959E-07,4.718040E-02
-9.28355146E-07,5.060078E-02
-9.28347334E-07,5.416477E-02
-9.28339521E-07,5.763737E-02
-9.28331709E-07,6.043112E-02
-9.28323896E-07,6.190633E-02
-9.28316084E-07,6.190633E-02
-9.28308271E-07,6.080971E-02
-9.28300459E-07,5.960866E-02
-9.28292646E-07,5.925618E-02
-9.28284834E-07,5.990893E-02
-9.28277021E-07,6.078360E-02
-9.28269209E-07,6.067917E-02
-9.28261396E-07,5.859038E-02
-9.28253584E-07,5.458253E-02
-9.28245771E-07,4.989582E-02
-9.28237959E-07,4.594019E-02
-9.28230146E-07,4.318560E-02
-9.28222334E-07,4.079656E-02
-9.28214521E-07,3.735006E-02
-9.28206709E-07,3.207588E-02
-9.28198896E-07,2.540483E-02
-9.28191084E-07,1.881211E-02
-9.28183271E-07,1.374681E-02
-9.28175459E-07,1.036559E-02
-9.28167646E-07,7.51962E-03
-9.28159834E-07,3.55093E-03
-9.28152021E-07,-2.53265E-03
-9.28144209E-07,-1.019588E-02
-9.28136396E-07,-1.770244E-02
-9.28128584E-07,-2.344660E-02
-9.28120771E-07,-2.714113E-02
-9.28112959E-07,-2.998710E-02
-9.28105146E-07,-3.370775E-02
-9.28097334E-07,-3.924302E-02
-9.28089521E-07,-4.603157E-02
-9.28081709E-07,-5.253291E-02
-9.28073896E-07,-5.724573E-02
-9.28066084E-07,-5.962172E-02
-9.28058271E-07,-6.036585E-02
-9.28050459E-07,-6.069222E-02
-9.28042646E-07,-6.138413E-02
-9.28034834E-07,-6.235019E-02
-9.28027021E-07,-6.284628E-02
-9.28019209E-07,-6.220659E-02
-9.28011396E-07,-6.053556E-02
-9.28003584E-07,-5.844678E-02
-9.27995771E-07,-5.651465E-02
-9.27987959E-07,-5.470002E-02
-9.27980146E-07,-5.242847E-02
-9.27972334E-07,-4.917780E-02
-9.27964521E-07,-4.506551E-02
-9.27956709E-07,-4.073128E-02
-9.27948896E-07,-3.676259E-02
-9.27941084E-07,-3.326388E-02
-9.27933271E-07,-2.985655E-02
-9.27925459E-07,-2.575731E-02
-9.27917646E-07,-2.074423E-02
-9.27909834E-07,-1.531340E-02
-9.27902021E-07,-1.001311E-02
-9.27894209E-07,-4.80420E-03
-9.27886396E-07,6.6580E-04
-9.27878584E-07,6.77549E-03
-9.27870771E-07,1.347265E-02
-9.27862959E-07,2.016982E-02
-9.27855146E-07,2.592703E-02
-9.27847334E-07,3.049624E-02
-9.27839521E-07,3.456937E-02
-9.27831709E-07,3.895582E-02
-9.27823896E-07,4.391668E-02
-9.27816084E-07,4.891670E-02
-9.27808271E-07,5.297678E-02
-9.27800459E-07,5.540499E-02
-9.27792646E-07,5.642327E-02
-9.27784834E-07,5.702379E-02
-9.27777021E-07,5.801597E-02
-9.27769209E-07,5.949117E-02
-9.27761396E-07,6.097943E-02
-9.27753584E-07,6.190633E-02
-9.27745771E-07,6.210215E-02
-9.27737959E-07,6.176272E-02
-9.27730146E-07,6.110998E-02
-9.27722334E-07,5.993504E-02
-9.27714521E-07,5.791153E-02
-9.27706709E-07,5.500028E-02
-9.27698896E-07,5.167129E-02
-9.27691084E-07,4.859033E-02
-9.27683271E-07,4.567909E-02
-9.27675459E-07,4.204983E-02
-9.27667646E-07,3.674954E-02
-9.27659834E-07,2.983044E-02
-9.27652021E-07,2.262414E-02
-9.27644209E-07,1.694526E-02
-9.27636396E-07,1.360320E-02
-9.27628584E-07,1.155358E-02
-9.27620771E-07,8.51179E-03
-9.27612959E-07,2.65014E-03
-9.27605146E-07,-5.87470E-03
-9.27597334E-07,-1.509146E-02
-9.27589521E-07,-2.271552E-02
-9.27581709E-07,-2.792443E-02
-9.27573896E-07,-3.182784E-02
-9.27566084E-07,-3.618818E-02
-9.27558271E-07,-4.169734E-02
-9.27550459E-07,-4.738928E-02
-9.27542646E-07,-5.141019E-02
-9.27534834E-07,-5.274179E-02
-9.27527021E-07,-5.237625E-02
-9.27519209E-07,-5.261124E-02
-9.27511396E-07,-5.506556E-02
-9.27503584E-07,-5.912563E-02
-9.27495771E-07,-6.254602E-02
-9.27487959E-07,-6.330320E-02
-9.27480146E-07,-6.099248E-02
-9.27472334E-07,-5.714129E-02
-9.27464521E-07,-5.409950E-02
-9.27456709E-07,-5.304205E-02
-9.27448896E-07,-5.318565E-02
-9.27441084E-07,-5.274179E-02
-9.27433271E-07,-5.062689E-02
-9.27425459E-07,-4.714124E-02
-9.27417646E-07,-4.360336E-02
-9.27409834E-07,-4.107071E-02
-9.27402021E-07,-3.925608E-02
-9.27394209E-07,-3.667121E-02
-9.27386396E-07,-3.207588E-02
-9.27378584E-07,-2.540483E-02
-9.27370771E-07,-1.772855E-02
-9.27362959E-07,-1.044392E-02
-9.27355146E-07,-4.21673E-03
-9.27347334E-07,1.38382E-03
-9.27339521E-07,7.23241E-03
-9.27331709E-07,1.362931E-02
-9.27323896E-07,2.014371E-02
-9.27316084E-07,2.603147E-02
-9.27308271E-07,3.094011E-02
-9.27300459E-07,3.515684E-02
-9.27292646E-07,3.938663E-02
-9.27284834E-07,4.406028E-02
-9.27277021E-07,4.874699E-02
-9.27269209E-07,5.283317E-02
-9.27261396E-07,5.604468E-02
-9.27253584E-07,5.859038E-02
-9.27245771E-07,6.103165E-02
-9.27237959E-07,6.362957E-02
-9.27230146E-07,6.582279E-02
-9.27222334E-07,6.668442E-02
-9.27214521E-07,6.570530E-02
-9.27206709E-07,6.331625E-02
-9.27198896E-07,6.079666E-02
-9.27191084E-07,5.932146E-02
-9.27183271E-07,5.895592E-02
-9.27175459E-07,5.853816E-02
-9.27167646E-07,5.650160E-02
-9.27159834E-07,5.212821E-02
-9.27152021E-07,4.616212E-02
-9.27144209E-07,4.014381E-02
-9.27136396E-07,3.539183E-02
-9.27128584E-07,3.194534E-02
-9.27120771E-07,2.866856E-02
-9.27112959E-07,2.416462E-02
-9.27105146E-07,1.815936E-02
-9.27097334E-07,1.176246E-02
-9.27089521E-07,6.37079E-03
-9.27081709E-07,2.46738E-03
-9.27073896E-07,-7.8329E-04
-9.27066084E-07,-5.07836E-03
-9.27058271E-07,-1.147526E-02
-9.27050459E-07,-1.955624E-02
-9.27042646E-07,-2.754583E-02
-9.27034834E-07,-3.348581E-02
-9.27027021E-07,-3.681481E-02
-9.27019209E-07,-3.868166E-02
-9.27011396E-07,-4.086183E-02
-9.27003584E-07,-4.450415E-02
-9.26995771E-07,-4.939973E-02
-9.26987959E-07,-5.438670E-02
-9.26980146E-07,-5.822484E-02
-9.26972334E-07,-6.045723E-02
-9.26964521E-07,-6.146246E-02
-9.26956709E-07,-6.172356E-02
-9.26948896E-07,-6.150162E-02
-9.26941084E-07,-6.071833E-02
-9.26933271E-07,-5.928229E-02
-9.26925459E-07,-5.748072E-02
-9.26917646E-07,-5.569219E-02
-9.26909834E-07,-5.391673E-02
-9.26902021E-07,-5.178878E-02
-9.26894209E-07,-4.882532E-02
-9.26886396E-07,-4.490885E-02
-9.26878584E-07,-4.061379E-02
-9.26870771E-07,-3.672343E-02
-9.26862959E-07,-3.339443E-02
-9.26855146E-07,-3.005237E-02
-9.26847334E-07,-2.597925E-02
-9.26839521E-07,-2.078340E-02
-9.26831709E-07,-1.494786E-02
-9.26823896E-07,-9.42564E-03
-9.26816084E-07,-4.73893E-03
-9.26808271E-07,-4.1776E-04
-9.26800459E-07,4.69976E-03
-9.26792646E-07,1.130554E-02
-9.26784834E-07,1.886433E-02
-9.26777021E-07,2.596619E-02
-9.26769209E-07,3.148841E-02
-9.26761396E-07,3.540488E-02
-9.26753584E-07,3.882527E-02
-9.26745771E-07,4.284617E-02
-9.26737959E-07,4.754594E-02
-9.26730146E-07,5.184100E-02
-9.26722334E-07,5.451725E-02
-9.26714521E-07,5.540499E-02
-9.26706709E-07,5.570525E-02
-9.26698896E-07,5.711518E-02
-9.26691084E-07,6.032668E-02
-9.26683271E-07,6.441287E-02
-9.26675459E-07,6.768965E-02
-9.26667646E-07,6.892986E-02
-9.26659834E-07,6.821184E-02
-9.26652021E-07,6.678886E-02
-9.26644209E-07,6.554864E-02
-9.26636396E-07,6.409955E-02
-9.26628584E-07,6.135802E-02
-9.26620771E-07,5.660604E-02
-9.26612959E-07,5.026136E-02
-9.26605146E-07,4.389057E-02
-9.26597334E-07,3.913858E-02
-9.26589521E-07,3.630567E-02
-9.26581709E-07,3.402106E-02
-9.26573896E-07,3.033958E-02
-9.26566084E-07,2.455626E-02
-9.26558271E-07,1.751967E-02
-9.26550459E-07,1.083557E-02
-9.26542646E-07,5.58750E-03
-9.26534834E-07,1.34465E-03
-9.26527021E-07,-3.35511E-03
-9.26519209E-07,-9.64757E-03
-9.26511396E-07,-1.736301E-02
-9.26503584E-07,-2.510457E-02
-9.26495771E-07,-3.125343E-02
-9.26487959E-07,-3.510462E-02
-9.26480146E-07,-3.732395E-02
-9.26472334E-07,-3.939968E-02
-9.26464521E-07,-4.241536E-02
-9.26456709E-07,-4.638405E-02
-9.26448896E-07,-5.065300E-02
-9.26441084E-07,-5.433448E-02
-9.26433271E-07,-5.690630E-02
-9.26425459E-07,-5.873399E-02
-9.26417646E-07,-6.039196E-02
-9.26409834E-07,-6.211520E-02
-9.26402021E-07,-6.381234E-02
-9.26394209E-07,-6.501339E-02
-9.26386396E-07,-6.527449E-02
-9.26378584E-07,-6.433454E-02
-9.26370771E-07,-6.229797E-02
-9.26362959E-07,-5.938673E-02
-9.26355146E-07,-5.588802E-02
-9.26347334E-07,-5.191933E-02
-9.26339521E-07,-4.754594E-02
-9.26331709E-07,-4.282006E-02
-9.26323896E-07,-3.787226E-02
-9.26316084E-07,-3.278085E-02
-9.26308271E-07,-2.749361E-02
-9.26300459E-07,-2.190612E-02
-9.26292646E-07,-1.590087E-02
-9.26284834E-07,-9.50397E-03
-9.26277021E-07,-3.13318E-03
-9.26269209E-07,2.55876E-03
-9.26261396E-07,7.04964E-03
-9.26253584E-07,1.032642E-02
-9.26245771E-07,1.306795E-02
-9.26237959E-07,1.637084E-02
-9.26230146E-07,2.096617E-02
-9.26222334E-07,2.680171E-02
-9.26214521E-07,3.318555E-02
-9.26206709E-07,3.904720E-02
-9.26198896E-07,4.369474E-02
-9.26191084E-07,4.718040E-02
-9.26183271E-07,4.990887E-02
-9.26175459E-07,5.229792E-02
-9.26167646E-07,5.454336E-02
-9.26159834E-07,5.651465E-02
-9.26152021E-07,5.809430E-02
-9.26144209E-07,5.953033E-02
-9.26136396E-07,6.107081E-02
-9.26128584E-07,6.254602E-02
-9.26120771E-07,6.343375E-02
-9.26112959E-07,6.306821E-02
-9.26105146E-07,6.118831E-02
-9.26097334E-07,5.825095E-02
-9.26089521E-07,5.518305E-02
-9.26081709E-07,5.271568E-02
-9.26073896E-07,5.075744E-02
-9.26066084E-07,4.845978E-02
-9.26058271E-07,4.509162E-02
-9.26050459E-07,4.062684E-02
-9.26042646E-07,3.567904E-02
-9.26034834E-07,3.082261E-02
-9.26027021E-07,2.622729E-02
-9.26019209E-07,2.143614E-02
-9.26011396E-07,1.573115E-02
-9.26003584E-07,9.06010E-03
-9.25995771E-07,2.19322E-03
-9.25987959E-07,-4.20368E-03
-9.25980146E-07,-9.89561E-03
-9.25972334E-07,-1.522201E-02
-9.25964521E-07,-2.088784E-02
-9.25956709E-07,-2.707586E-02
-9.25948896E-07,-3.319861E-02
-9.25941084E-07,-3.842056E-02
-9.25933271E-07,-4.228481E-02
-9.25925459E-07,-4.526133E-02
-9.25917646E-07,-4.825090E-02
-9.25909834E-07,-5.163212E-02
-9.25902021E-07,-5.511778E-02
-9.25894209E-07,-5.802902E-02
-9.25886396E-07,-5.984365E-02
-9.25878584E-07,-6.087499E-02
-9.25870771E-07,-6.188022E-02
-9.25862959E-07,-6.335542E-02
-9.25855146E-07,-6.501339E-02
-9.25847334E-07,-6.591418E-02
-9.25839521E-07,-6.519616E-02
-9.25831709E-07,-6.275489E-02
-9.25823896E-07,-5.925618E-02
-9.25816084E-07,-5.550943E-02
-9.25808271E-07,-5.181489E-02
-9.25800459E-07,-4.810730E-02
-9.25792646E-07,-4.425610E-02
-9.25784834E-07,-4.028741E-02
-9.25777021E-07,-3.634484E-02
-9.25769209E-07,-3.237615E-02
-9.25761396E-07,-2.783304E-02
-9.25753584E-07,-2.211500E-02
-9.25745771E-07,-1.524812E-02
-9.25737959E-07,-8.14626E-03
-9.25730146E-07,-2.04962E-03
-9.25722334E-07,2.57181E-03
-9.25714521E-07,6.48828E-03
-9.25706709E-07,1.109666E-02
-9.25698896E-07,1.733690E-02
-9.25691084E-07,2.469987E-02
-9.25683271E-07,3.154063E-02
-9.25675459E-07,3.635789E-02
-9.25667646E-07,3.916469E-02
-9.25659834E-07,4.163207E-02
-9.25652021E-07,4.573131E-02
-9.25644209E-07,5.204988E-02
-9.25636396E-07,5.912563E-02
-9.25628584E-07,6.447814E-02
-9.25620771E-07,6.660609E-02
-9.25612959E-07,6.597945E-02
-9.25605146E-07,6.447814E-02
-9.25597334E-07,6.408649E-02
-9.25589521E-07,6.532671E-02
-9.25581709E-07,6.694552E-02
-9.25573896E-07,6.731105E-02
-9.25566084E-07,6.570530E-02
-9.25558271E-07,6.280711E-02
-9.25550459E-07,5.996115E-02
-9.25542646E-07,5.785931E-02
-9.25534834E-07,5.587496E-02
-9.25527021E-07,5.279401E-02
-9.25519209E-07,4.783315E-02
-9.25511396E-07,4.130570E-02
-9.25503584E-07,3.426911E-02
-9.25495771E-07,2.791137E-02
-9.25487959E-07,2.270247E-02
-9.25480146E-07,1.827686E-02
-9.25472334E-07,1.382514E-02
-9.25464521E-07,8.77289E-03
-9.25456709E-07,3.12012E-03
-9.25448896E-07,-2.98957E-03
-9.25441084E-07,-9.30814E-03
-9.25433271E-07,-1.541783E-02
-9.25425459E-07,-2.079645E-02
-9.25417646E-07,-2.520901E-02
-9.25409834E-07,-2.879910E-02
-9.25402021E-07,-3.214116E-02
-9.25394209E-07,-3.599235E-02
-9.25386396E-07,-4.065295E-02
-9.25378584E-07,-4.565298E-02
-9.25370771E-07,-5.002637E-02
-9.25362959E-07,-5.308121E-02
-9.25355146E-07,-5.507861E-02
-9.25347334E-07,-5.714129E-02
-9.25339521E-07,-6.010475E-02
-9.25331709E-07,-6.356430E-02
-9.25323896E-07,-6.608389E-02
-9.25316084E-07,-6.618833E-02
-9.25308271E-07,-6.359041E-02
-9.25300459E-07,-5.968699E-02
-9.25292646E-07,-5.660604E-02
-9.25284834E-07,-5.544415E-02
-9.25277021E-07,-5.541804E-02
-9.25269209E-07,-5.437365E-02
-9.25261396E-07,-5.048329E-02
-9.25253584E-07,-4.381224E-02
-9.25245771E-07,-3.643622E-02
-9.25237959E-07,-3.080956E-02
-9.25230146E-07,-2.795054E-02
-9.25222334E-07,-2.682782E-02
-9.25214521E-07,-2.516984E-02
-9.25206709E-07,-2.137087E-02
-9.25198896E-07,-1.569199E-02
-9.25191084E-07,-9.76506E-03
-9.25183271E-07,-4.92170E-03
-9.25175459E-07,-1.12272E-03
-9.25167646E-07,3.15929E-03
-9.25159834E-07,9.59535E-03
-9.25152021E-07,1.830297E-02
-9.25144209E-07,2.762416E-02
-9.25136396E-07,3.531350E-02
-9.25128584E-07,4.022214E-02
-9.25120771E-07,4.309422E-02
-9.25112959E-07,4.580964E-02
-9.25105146E-07,4.977833E-02
-9.25097334E-07,5.489585E-02
-9.25089521E-07,5.960866E-02
-9.25081709E-07,6.228492E-02
-9.25073896E-07,6.248074E-02
-9.25066084E-07,6.120136E-02
-9.25058271E-07,6.001337E-02
-9.25050459E-07,6.001337E-02
-9.25042646E-07,6.112303E-02
-9.25034834E-07,6.238936E-02
-9.25027021E-07,6.278100E-02
-9.25019209E-07,6.174967E-02
-9.25011396E-07,5.947811E-02
-9.25003584E-07,5.644938E-02
-9.24995771E-07,5.304205E-02
-9.24987959E-07,4.936057E-02
-9.24980146E-07,4.556159E-02
-9.24972334E-07,4.189317E-02
-9.24964521E-07,3.860333E-02
-9.24956709E-07,3.533961E-02
-9.24948896E-07,3.129259E-02
-9.24941084E-07,2.580953E-02
-9.24933271E-07,1.890349E-02
-9.24925459E-07,1.134471E-02
-9.24917646E-07,4.20368E-03
-9.24909834E-07,-1.74936E-03
-9.24902021E-07,-6.56661E-03
-9.24894209E-07,-1.113583E-02
-9.24886396E-07,-1.635779E-02
-9.24878584E-07,-2.237609E-02
-9.24870771E-07,-2.853801E-02
-9.24862959E-07,-3.395579E-02
-9.24855146E-07,-3.810725E-02
-9.24847334E-07,-4.137097E-02
-9.24839521E-07,-4.468692E-02
-9.24831709E-07,-4.860338E-02
-9.24823896E-07,-5.280706E-02
-9.24816084E-07,-5.643632E-02
-9.24808271E-07,-5.877315E-02
-9.24800459E-07,-5.981754E-02
-9.24792646E-07,-6.018308E-02
-9.24784834E-07,-6.077055E-02
-9.24777021E-07,-6.194549E-02
-9.24769209E-07,-6.318571E-02
-9.24761396E-07,-6.353819E-02
-9.24753584E-07,-6.258518E-02
-9.24745771E-07,-6.065306E-02
-9.24737959E-07,-5.845983E-02
-9.24730146E-07,-5.667131E-02
-9.24722334E-07,-5.507861E-02
-9.24714521E-07,-5.267651E-02
-9.24706709E-07,-4.859033E-02
-9.24698896E-07,-4.285923E-02
-9.24691084E-07,-3.639706E-02
-9.24683271E-07,-3.041791E-02
-9.24675459E-07,-2.553538E-02
-9.24667646E-07,-2.139698E-02
-9.24659834E-07,-1.702359E-02
-9.24652021E-07,-1.144915E-02
-9.24644209E-07,-4.42561E-03
-9.24636396E-07,3.30289E-03
-9.24628584E-07,1.069196E-02
-9.24620771E-07,1.707581E-02
-9.24612959E-07,2.259803E-02
-9.24605146E-07,2.771555E-02
-9.24597334E-07,3.275474E-02
-9.24589521E-07,3.782004E-02
-9.24581709E-07,4.265035E-02
-9.24573896E-07,4.680181E-02
-9.24566084E-07,5.020914E-02
-9.24558271E-07,5.317260E-02
-9.24550459E-07,5.603162E-02
-9.24542646E-07,5.881231E-02
-9.24534834E-07,6.127969E-02
-9.24527021E-07,6.306821E-02
-9.24519209E-07,6.381234E-02
-9.24511396E-07,6.359041E-02
-9.24503584E-07,6.292461E-02
-9.24495771E-07,6.235019E-02
-9.24487959E-07,6.204993E-02
-9.24480146E-07,6.157995E-02
-9.24472334E-07,6.015697E-02
-9.24464521E-07,5.732406E-02
-9.24456709E-07,5.325093E-02
-9.24448896E-07,4.869477E-02
-9.24441084E-07,4.484357E-02
-9.24433271E-07,4.245453E-02
-9.24425459E-07,4.121431E-02
-9.24417646E-07,3.990882E-02
-9.24409834E-07,3.716729E-02
-9.24402021E-07,3.223254E-02
-9.24394209E-07,2.554844E-02
-9.24386396E-07,1.822464E-02
-9.24378584E-07,1.138387E-02
-9.24370771E-07,5.39167E-03
-9.24362959E-07,-2.8721E-04
-9.24355146E-07,-6.35774E-03
-9.24347334E-07,-1.301573E-02
-9.24339521E-07,-1.976512E-02
-9.24331709E-07,-2.583564E-02
-9.24323896E-07,-3.090094E-02
-9.24316084E-07,-3.532655E-02
-9.24308271E-07,-3.984355E-02
-9.24300459E-07,-4.498718E-02
-9.24292646E-07,-5.049634E-02
-9.24284834E-07,-5.541804E-02
-9.24277021E-07,-5.898203E-02
-9.24269209E-07,-6.114914E-02
-9.24261396E-07,-6.245463E-02
-9.24253584E-07,-6.360346E-02
-9.24245771E-07,-6.470007E-02
-9.24237959E-07,-6.506561E-02
-9.24230146E-07,-6.404733E-02
-9.24222334E-07,-6.174967E-02
-9.24214521E-07,-5.906036E-02
-9.24206709E-07,-5.702379E-02
-9.24198896E-07,-5.603162E-02
-9.24191084E-07,-5.528749E-02
-9.24183271E-07,-5.347286E-02
-9.24175459E-07,-4.980444E-02
-9.24167646E-07,-4.466081E-02
-9.24159834E-07,-3.941274E-02
-9.24152021E-07,-3.523517E-02
-9.24144209E-07,-3.206283E-02
-9.24136396E-07,-2.872078E-02
-9.24128584E-07,-2.394268E-02
-9.24120771E-07,-1.732385E-02
-9.24112959E-07,-9.90867E-03
-9.24105146E-07,-3.27678E-03
-9.24097334E-07,1.89296E-03
-9.24089521E-07,6.21413E-03
-9.24081709E-07,1.095306E-02
-9.24073896E-07,1.693220E-02
-9.24066084E-07,2.378602E-02
-9.24058271E-07,3.015681E-02
-9.24050459E-07,3.488269E-02
-9.24042646E-07,3.795059E-02
-9.24034834E-07,4.043102E-02
-9.24027021E-07,4.351197E-02
-9.24019209E-07,4.740233E-02
-9.24011396E-07,5.147546E-02
-9.24003584E-07,5.502639E-02
-9.23995771E-07,5.782014E-02
-9.23987959E-07,6.030057E-02
-9.23980146E-07,6.288544E-02
-9.23972334E-07,6.509172E-02
-9.23964521E-07,6.584890E-02
-9.23956709E-07,6.442592E-02
-9.23948896E-07,6.138413E-02
-9.23941084E-07,5.853816E-02
-9.23933271E-07,5.754599E-02
-9.23925459E-07,5.844678E-02
-9.23917646E-07,5.941284E-02
-9.23909834E-07,5.808124E-02
-9.23902021E-07,5.349897E-02
-9.23894209E-07,4.672348E-02
-9.23886396E-07,4.009159E-02
-9.23878584E-07,3.550932E-02
-9.23870771E-07,3.278085E-02
-9.23862959E-07,3.000016E-02
-9.23855146E-07,2.536567E-02
-9.23847334E-07,1.872072E-02
-9.23839521E-07,1.151442E-02
-9.23831709E-07,5.45695E-03
-9.23823896E-07,1.10967E-03
-9.23816084E-07,-2.63709E-03
-9.23808271E-07,-7.70239E-03
-9.23800459E-07,-1.502619E-02
-9.23792646E-07,-2.362937E-02
-9.23784834E-07,-3.144925E-02
-9.23777021E-07,-3.685398E-02
-9.23769209E-07,-3.976522E-02
-9.23761396E-07,-4.139708E-02
-9.23753584E-07,-4.322477E-02
-9.23745771E-07,-4.592713E-02
-9.23737959E-07,-4.913864E-02
-9.23730146E-07,-5.206293E-02
-9.23722334E-07,-5.428227E-02
-9.23714521E-07,-5.603162E-02
-9.23706709E-07,-5.779403E-02
-9.23698896E-07,-5.988282E-02
-9.23691084E-07,-6.207604E-02
-9.23683271E-07,-6.374707E-02
-9.23675459E-07,-6.430843E-02
-9.23667646E-07,-6.356430E-02
-9.23659834E-07,-6.156690E-02
-9.23652021E-07,-5.869482E-02
-9.23644209E-07,-5.567914E-02
-9.23636396E-07,-5.297678E-02
-9.23628584E-07,-5.030052E-02
-9.23620771E-07,-4.690625E-02
-9.23612959E-07,-4.208899E-02
-9.23605146E-07,-3.566598E-02
-9.23597334E-07,-2.839440E-02
-9.23589521E-07,-2.177557E-02
-9.23581709E-07,-1.706275E-02
-9.23573896E-07,-1.412540E-02
-9.23566084E-07,-1.142304E-02
-9.23558271E-07,-7.16714E-03
-9.23550459E-07,-6.6580E-04
-9.23542646E-07,7.34991E-03
-9.23534834E-07,1.518285E-02
-9.23527021E-07,2.154058E-02
-9.23519209E-07,2.651450E-02
-9.23511396E-07,3.109677E-02
-9.23503584E-07,3.590097E-02
-9.23495771E-07,4.062684E-02
-9.23487959E-07,4.433443E-02
-9.23480146E-07,4.648849E-02
-9.23472334E-07,4.789842E-02
-9.23464521E-07,5.010470E-02
-9.23456709E-07,5.391673E-02
-9.23448896E-07,5.855122E-02
-9.23441084E-07,6.216742E-02
-9.23433271E-07,6.332931E-02
-9.23425459E-07,6.231103E-02
